<svg width="25" height="25" viewBox="0 0 25 25" fill="none" xmlns="http://www.w3.org/2000/svg">
<path fill-rule="evenodd" clip-rule="evenodd" d="M12.5 25C19.4036 25 25 19.4036 25 12.5C25 5.59644 19.4036 0 12.5 0C5.59644 0 0 5.59644 0 12.5C0 19.4036 5.59644 25 12.5 25ZM7.44681 11.5007L8.57517 10.3723L11.7344 13.5316L17.2872 7.97872L18.4156 9.10709L11.7344 15.7883L7.44681 11.5007Z" fill="white"/>
</svg>
